[gd_scene load_steps=2 format=3 uid="uid://b1qoa21ee6yqt"]

[ext_resource type="Texture2D" uid="uid://c2hlruuw44uii" path="res://game/assets/icon.png" id="1_fjqu6"]

[node name="DoorIcon" type="Node2D"]

[node name="Sprite2D" type="Sprite2D" parent="."]
texture = ExtResource("1_fjqu6")
