[gd_scene load_steps=8 format=3 uid="uid://0xqgee8s0jw6"]

[ext_resource type="Texture2D" uid="uid://cf2vdpm2r6uoi" path="res://game/assets/player_idle1.png" id="1_hk53n"]
[ext_resource type="Texture2D" uid="uid://l6imvetawtw8" path="res://game/assets/player_idle2.png" id="2_hj0so"]
[ext_resource type="Texture2D" uid="uid://df2n7g2t7qxwi" path="res://game/assets/player_idle3.png" id="3_vhgki"]
[ext_resource type="Texture2D" uid="uid://dug50cdobg3hw" path="res://game/assets/player_idle4.png" id="4_kb6wm"]
[ext_resource type="Texture2D" uid="uid://5xid6txyxh7k" path="res://game/assets/player_idle5.png" id="5_5ul0x"]
[ext_resource type="Texture2D" uid="uid://cnc2irp7uobml" path="res://game/assets/player_idle6.png" id="6_mjpns"]

[sub_resource type="SpriteFrames" id="SpriteFrames_rl4a8"]
animations = [{
"frames": [{
"duration": 1.0,
"texture": ExtResource("1_hk53n")
}, {
"duration": 1.0,
"texture": ExtResource("2_hj0so")
}, {
"duration": 1.0,
"texture": ExtResource("3_vhgki")
}, {
"duration": 1.0,
"texture": ExtResource("4_kb6wm")
}, {
"duration": 1.0,
"texture": ExtResource("5_5ul0x")
}, {
"duration": 1.0,
"texture": ExtResource("6_mjpns")
}],
"loop": true,
"name": &"idle",
"speed": 5.0
}]

[node name="PlayerAnimation" type="AnimatedSprite2D"]
position = Vector2(48, 16)
sprite_frames = SubResource("SpriteFrames_rl4a8")
animation = &"idle"
