[gd_scene load_steps=2 format=3 uid="uid://dqerc0pwf4fdr"]

[ext_resource type="Script" path="res://game/ecs/components/slime_trap_component.gd" id="1_b50qy"]

[node name="SlimeTrapComponent" type="Node"]
script = ExtResource("1_b50qy")
